7516 403738 443
892920 956154 507
716728 316604 509
383744 579231 470
760808 79488 509
960368 948322 414
523300 314356 470
255550 244693 363
649929 881009 525
888826 840649 445
93112 135158 354
624022 613411 447
246150 437501 449
429691 688318 509
235577 785452 509
903923 980853 507
210748 307619 443
717951 327677 509
832656 209098 509
817124 682027 504
992777 859728 507
62450 518815 470
103546 29762 351
309043 490885 449
397301 351557 436
833551 510619 509
674079 659163 442
206553 440422 449
690224 659672 442
314587 964214 525
642185 192369 509
976863 544910 525
746727 115863 509
799429 78661 509
460388 489369 444
995997 498015 525
531140 946593 525
217890 26265 386
8366 59749 340
677495 876914 525
390612 290083 441
514833 140385 470
373792 910993 525
57854 478613 449
420701 748266 509
694937 102563 509
560112 287857 470
881051 890356 445
444367 460721 387
500458 444269 444
675115 573716 509
970084 176687 525
147570 146018 357
469089 752250 509
896815 306626 525
938495 293346 525
238554 218049 443
654612 672984 442
736529 326575 509
533695 260500 470
349527 616786 470
520658 869609 525
288159 835776 509
634955 857676 525
27733 561419 470
289072 612973 470
598017 171937 470
342062 47990 443
430148 954837 525
256331 228936 443
651032 805803 504
488228 769028 509
696280 299648 509
253052 561582 470
280825 262016 407
602657 66188 470
352180 281879 441
527586 101532 470
836096 964622 525
306967 911597 525
507374 370503 449
788407 149164 509
931967 722007 525
820418 968431 525
714772 201878 509
683597 425629 509
785868 582316 509
951705 712683 525
686036 65066 509
34324 306300 443
747455 13334 509
815944 43862 509
689839 94268 509
827336 447463 509
674526 20634 509
389876 829992 509
87555 882059 525
272155 572307 470
792474 976783 525
166754 144757 383
586311 686662 509
51661 973773 525
785658 826028 468
815749 253539 509
69663 66668 312
282884 222592 443
586432 839599 525
483325 267138 449
895767 717348 525
138594 234819 443
691927 949547 525
791977 224853 509
598242 471306 470
704710 424018 509
258584 680489 509
894742 81703 525
74059 354884 443
474802 519853 470
782402 282050 509
485376 710008 509
390769 183188 443
720049 931241 525
145490 906335 525
219373 869208 525
510219 58167 449
763266 835504 468
45358 976666 525
229287 939618 525
160156 673622 509
116173 375395 443
398089 910818 525
115892 381089 443
812879 898255 525
539836 127306 470
126096 905329 525
41886 165788 383
746938 97145 509
704511 228663 509
579148 128504 470
266112 825543 509
893729 184769 525
663629 965889 525
873905 502710 525
654540 315568 509
877989 923783 476
478688 39366 449
887841 659220 525
999981 529674 525
51293 405215 443
20684 775231 509
156352 901164 525
245596 534316 470
991471 726694 525
567454 310564 470
236981 890621 525
803763 766087 468
95978 635313 509
669801 319042 509
208755 992900 525
562363 852144 525
87397 207956 383
704371 143178 509
766450 31722 509
412724 666265 509
393102 545865 470
2857 876721 525
646779 547248 509
293491 84295 443
311754 550406 470
120894 508330 449
28132 55782 340
623752 418107 470
513875 510062 470
117363 286294 443
825762 967535 525
896014 721991 525
778676 751693 468
487520 138754 449
142546 403619 443
687684 993064 525
931895 351917 525
959733 844225 507
452282 490147 444
623078 163373 470
60726 681503 509
443502 433575 400
638045 760491 504
427166 241622 449
307190 219581 443
456790 664008 509
230554 346238 443
395805 389016 436
87450 728842 509
906571 422316 525
950324 300140 525
296265 932714 525
757159 414485 509
999273 282606 525
494720 398747 449
37 118510 354
206567 320893 443
326102 619182 470
199909 670482 509
103067 614840 470
48074 105189 351
58267 276379 443
577916 776341 509
436457 722561 509
668936 560434 509
65711 239743 443
62901 714988 509
72447 643444 509
123380 637688 509
198131 432942 449
644549 374396 509
886867 890293 445
778475 612559 509
937631 63396 525
671026 593480 509
791383 716018 468
408848 174724 443
958573 815263 525
774492 163748 509
171538 487870 449
265249 179026 443
337766 910375 525
701578 215504 509
765621 188935 509
793748 764299 468
563388 708433 509
339339 816167 509
929339 474636 525
375090 363799 392
923607 300990 525
774463 118590 509
835915 229100 509
692790 699959 367
982226 593133 525
144663 700987 509
893120 15297 525
600356 108333 470
615128 271931 470
995768 286178 525
461837 544782 470
862414 824692 525
747954 726001 424
982345 562134 525
190746 357897 443
63173 179927 383
974155 995039 427
394011 661319 509
126642 466104 449
80784 422135 449
450431 179955 449
657826 758493 504
549993 984871 525
394141 84339 443
299259 859574 525
737879 100506 509
646525 683790 442
53001 996171 525
401390 958434 525
