227797 417114 449
222645 387189 443
898385 228703 525
138569 402646 443
787227 781938 375
248148 130087 443
247854 345831 407
667364 657373 442
343218 828168 509
120511 240661 443
311864 360720 441
509432 466576 426
574084 467922 470
459370 923723 525
872003 78266 525
837525 928855 525
759256 97476 509
282804 428223 449
379220 862650 525
426554 310391 449
463721 450955 444
437092 429120 387
430772 146347 449
743334 841735 525
265772 317036 407
763932 422079 509
374056 441483 449
369456 797686 509
409916 355107 436
786458 644034 504
16477 20540 279
718235 441483 509
675330 919563 525
794954 177415 509
523986 426992 470
491688 355896 449
109635 897715 525
860056 666609 525
772712 854838 525
448172 573689 470
111021 597624 470
29923 674544 509
48514 614726 470
183234 351667 443
784358 117985 509
336514 493992 449
807476 297724 509
416769 859720 525
130739 380981 443
412774 718513 509
229610 518735 470
895583 811896 525
823254 835895 419
257724 995636 525
318438 850155 525
267682 257970 407
366296 318414 441
787634 301840 509
485583 532187 470
699543 537759 509
792876 734720 468
392379 987896 525
476227 231909 449
765096 413304 509
739314 342716 509
443926 493127 444
582868 671950 509
994334 79329 525
87698 48320 351
503490 636567 509
188628 160153 370
239534 141405 443
287025 299621 389
991751 230172 525
289776 716727 509
376501 402313 436
321491 782653 509
371307 545395 470
269666 576325 470
876444 437167 525
415225 151693 449
236335 232119 381
789423 75165 509
71400 386906 443
374714 363497 392
819869 320270 509
871159 80533 525
597934 639832 509
440017 120909 449
655356 187615 509
465358 989646 525
650905 470049 509
124125 521046 470
737588 396434 509
335481 349698 441
416544 240905 449
868804 83205 525
318836 479574 449
109922 797003 509
611933 503403 470
90703 473711 449
141421 143128 375
109853 691761 509
498880 514382 470
633323 722581 504
553561 516216 452
643098 140116 509
230574 634607 509
280362 5101 443
844356 71585 525
592431 331331 470
353018 717267 509
664359 876708 525
153105 459830 449
213428 868945 525
623421 584218 447
969223 853187 507
96901 848747 525
839703 92606 525
624666 596399 447
519661 817450 509
503738 113503 449
125210 872268 525
660912 916499 525
255034 991891 525
651880 297012 509
305405 277456 389
734273 867859 525
9863 539001 470
852609 646100 525
6534 370008 443
977026 687142 525
549415 293772 470
626639 291190 509
908998 468726 525
308287 202744 443
809664 614573 509
625685 763384 509
375239 70432 443
848688 773854 525
679493 508643 509
219377 843242 525
362459 945365 525
187612 258875 443
262550 768554 509
671923 324923 509
83574 725713 509
363613 622967 470
549268 959295 525
322982 339739 384
923003 880326 476
736221 761707 424
727278 263745 509
271806 765642 509
150386 318831 443
232783 207955 443
16259 235908 443
686338 152175 509
796733 236316 509
116826 165942 383
539372 414338 470
802986 633899 504
296558 128938 443
336869 189895 443
985616 720003 525
969070 690106 525
608630 217582 470
132284 188353 383
518778 590829 452
389699 552890 470
139443 312508 443
388735 783700 509
182553 720614 509
498873 739697 509
717322 221702 509
290831 6934 443
997232 691976 525
313631 911447 525
625059 119752 470
416207 645561 509
462283 523543 470
186783 425968 449
861727 944446 507
36393 61545 340
561636 737456 509
7687 359788 443
555814 131969 470
348417 748923 509
221217 836653 509
187540 890007 525
451963 333887 449
384010 923337 525
826785 930615 525
132327 772706 509
10740 93559 351
618563 311810 470
972251 422674 525
364915 381438 423
753285 169831 509
924859 763204 525
140661 330338 443
589170 235988 470
212026 537018 470
619254 281935 470
727131 491367 509
271222 64132 443
367247 438745 449
738312 562439 509
388747 59779 443
377829 159849 443
