872847 474108
817796 253909
980772 535949
98801 670931
408453 745397
767251 228237
803864 672436
10292 40868
354053 102528
841054 320796
127310 173310
445650 670328
373311 143594
76633 865657
149327 486254
768634 759431
898936 332354
463658 460117
2624 375305
407581 134635
748138 643400
292480 919800
11724 897565
167242 790003
494890 417465
847396 3911
862242 679064
664453 823922
263323 226180
604069 892287
727970 551669
9542 278166
598012 537545
697774 625895
854178 540266
768019 473976
55365 902911
99686 347173
789986 837589
344943 982517
916347 346970
71774 960267
150051 723325
190961 602194
668565 117433
622459 689737
711339 460686
413435 146493
625752 104893
116993 858215
788210 937648
245087 848195
692615 151836
373277 10227
83296 362556
283940 28401
559446 422808
721024 316964
308140 730805
781860 554730
986157 541997
624332 752177
295798 30245
910151 669709
169561 126923
110893 247753
922980 530958
85037 755996
195338 961131
303858 605398
826148 925417
61815 896446
69186 599303
757569 985166
799170 288720
102650 347727
852202 564946
42611 574708
11075 538342
472972 349737
783274 980671
811393 817772
183812 230624
458950 784356
600980 243748
284338 640642
287488 465720
689143 619230
618030 891686
590455 764936
790938 492269
457788 902926
347823 312805
843896 441867
969151 949129
428641 908278
478453 28730
39000 523368
330894 829896
986377 944940
206037 756559
158839 853655
349298 74973
72945 272937
364782 146376
124279 727565
169299 843603
197496 205624
976576 741778
415806 352323
412413 603720
736713 812084
996461 125190
286593 934662
980035 551602
804537 386516
585885 757396
598546 456929
321200 286421
764480 262281
477699 83386
616142 510802
147146 196194
870881 851620
846429 739923
652722 29520
264023 353418
686478 149817
506358 542506
558400 53919
519394 166611
528500 364814
928383 858124
230709 355651
515409 736779
754420 365427
292711 527908
790825 222193
536093 331792
565463 642575
782376 913468
519317 733061
591066 467469
5268 986960
912941 740890
120236 566095
159002 943623
998627 2412
317176 896717
136916 884943
556243 565478
80520 810384
784412 835464
789134 885557
46413 382650
200174 488147
184554 600426
28488 407766
630689 814755
821090 443933
638068 31851
82444 135880
591626 842463
341294 77542
706716 972278
632024 277372
233332 675431
643065 643644
508807 581739
840852 674199
702859 661207
740050 25720
22813 269072
27043 27593
430685 665936
660599 893560
921843 370366
925759 442684
11536 847599
984587 917868
693612 44700
161660 56607
92362 531737
569215 49381
834084 730959
592741 476921
314192 315826
819760 501732
739166 347520
50777 936238
220232 584522
584403 298192
424125 716745
873935 789832
169796 138258
947401 64623
748712 986997
358223 301836
756800 233061
124758 557124
549845 601504
272118 693684
8552 82974
999123 468795
413163 449557
315381 490810
117177 253106
857593 314579
789766 905199
841547 648836
576574 63551
67865 452546
444969 385127
315977 636392
570883 791387
436213 484025
167784 436847
293766 844750
718542 851761
572965 310618
272488 516870
392120 482028
35368 815086
858218 142661
934849 333614
502652 881415
807935 919287
956411 118250
690858 414376
710385 896602
930304 293178
285136 175157
741452 863009
553878 825613
652588 113591
176345 760040
621308 640220
211273 832427
340731 184789
