955801 9627
765084 466329
880726 571749
916035 308206
862929 406311
332363 504171
127223 339329
461984 693283
407146 773552
319646 548710
208831 992609
224867 351876
215712 576071
90839 667127
812476 222638
275656 320086
374425 366926
69550 473179
667709 983423
476170 175213
727741 574948
906020 939001
364969 110856
731506 10606
457558 938986
74109 773355
375998 842099
880518 705954
929802 380413
247210 665443
944400 765344
797191 257174
167306 621213
455070 950845
600211 218689
221194 20161
611971 477562
540341 207966
961549 867619
27550 682979
433566 624749
894165 818450
666557 187005
772956 800383
436878 385611
123631 625030
299783 616135
820791 142877
780480 612100
623365 521991
410895 292525
866088 290933
193549 791554
321231 298492
624850 868753
36008 234779
72378 83563
258787 731097
544237 700802
938556 981147
868837 851228
597832 228012
152903 977367
516166 967341
454977 34251
88575 593600
159567 376402
971946 610090
278416 469285
430788 990459
360337 869123
65474 673357
770699 188496
493253 844438
176589 405134
84991 211409
331177 349658
559469 29099
413100 694607
873069 77469
937564 797270
273143 634702
516588 789392
894891 972991
612607 517002
406582 308692
99017 583244
542356 839051
365111 179039
576065 706588
584635 415730
179908 721866
838183 110808
951740 474286
805224 900061
592945 475627
304380 432397
124968 671091
110928 604120
843834 866776
109769 377668
567178 48326
304590 124692
79033 560955
943529 645450
215271 858063
75364 404220
354240 713231
162037 698851
130290 768201
513295 219821
4736 927951
408207 742464
590653 784497
326312 380480
49157 184325
43681 383031
305967 105299
262031 749581
6176 998414
83822 823022
168138 458118
560918 315641
556502 316258
384587 697423
149681 650605
845711 761026
600183 122610
69474 287449
211638 238281
137266 83991
414231 195117
986063 852822
159628 549789
509908 217539
962394 337924
75276 962084
74674 504683
315162 59415
698929 808838
922712 80108
631928 935886
316763 224623
59263 185391
601124 279460
328190 355458
60388 899717
951695 439151
956878 968647
294485 716400
7396 268058
381883 396888
779534 605317
575016 98642
106739 47703
904769 866315
690284 70422
380722 547922
181489 483846
503858 719118
384301 434081
623101 524860
29908 87837
885288 215903
620686 26279
290027 160174
24570 988232
929978 911950
734809 646191
876549 514519
167449 408079
748470 256226
831461 83245
972502 142334
367626 775084
906197 305254
158537 752753
744079 740510
971925 945095
296756 269853
429749 631086
514188 959868
829122 836570
169636 836566
72628 628264
871084 666820
549121 67267
611084 367656
941420 545602
156661 645688
971081 358012
929193 641053
107285 276677
663941 263395
633030 996837
698013 256461
7239 773046
42558 550315
888451 870781
270376 991719
843058 121273
656980 959956
404100 453486
869007 821637
692373 178994
231117 855945
934836 822522
989311 194694
704774 724814
