44564 380206 443
336440 395936 441
401248 78314 443
664888 849024 525
845531 931381 476
320531 992160 525
674816 531962 509
300415 518953 470
810747 733146 468
702861 196600 509
664251 987796 525
23141 636919 509
631899 844319 525
829308 168936 509
898982 219192 525
342380 826732 509
584621 752358 509
923344 406104 525
92450 28554 351
646285 716704 504
723919 258667 509
750784 963250 525
460778 221643 449
820925 280396 509
694731 892072 525
732246 246495 509
199969 495493 449
456174 834870 509
270116 930280 525
752761 978868 525
817782 569334 509
184692 21748 383
29444 204318 383
707400 379547 509
28212 375627 443
935008 775025 525
320104 363343 441
996103 611059 525
944107 444342 525
639126 30477 509
796472 860699 525
292156 629509 509
356535 456445 449
112687 729366 509
844621 596385 525
268472 928392 525
336956 260624 407
803594 325966 509
969265 1534 525
799285 477780 509
381258 876165 525
244261 156932 443
791850 647506 504
194621 603353 470
936288 212337 525
15027 202906 383
153063 638574 509
207839 444976 449
140814 468953 449
645704 76973 509
296675 735453 509
302248 819012 509
629276 119444 509
561878 792722 509
756564 239096 509
465406 147761 449
523160 695314 509
169578 396863 443
190850 361043 443
132259 979861 525
698746 156735 509
540717 335394 470
644840 568554 509
920198 646778 525
367517 802917 509
190179 668449 509
709884 710338 380
887701 190049 525
727306 854389 525
319484 863520 525
365241 233595 441
284066 909236 525
520087 937083 525
610735 859446 525
82811 321580 443
839249 542385 525
787434 171391 509
86221 251208 443
798285 953104 525
820901 904839 525
104678 187985 383
839966 882837 432
514044 795536 509
210063 244934 443
376957 316681 441
882187 130602 525
341732 358842 441
923774 650095 525
938294 317253 525
12341 577897 470
678446 152220 509
476722 848897 525
828547 6875 509
861530 321063 525
650598 115637 509
12380 463249 449
341227 730074 509
310354 276665 389
339781 373438 441
88255 997581 525
369851 1248 443
901572 680151 525
495271 502648 426
619819 487266 470
822604 730445 468
344157 549436 470
199935 809088 509
320007 781749 509
234000 864826 525
400719 433759 449
834797 92327 509
272656 849286 525
366080 611810 470
42460 727760 509
140221 254394 443
752673 533468 509
656843 336595 509
987945 754487 525
388850 104737 443
166916 513661 470
612163 196523 470
232777 583132 470
194688 123350 383
405845 493762 449
611659 903127 525
936390 239844 525
423892 203957 449
901317 719659 525
184211 195275 360
272791 975921 525
183460 268106 443
902302 441955 525
411468 434560 418
252158 226660 443
638602 709376 504
177971 204161 365
591304 613335 403
925104 418395 525
566687 719345 509
689662 666289 398
880944 363486 525
776845 934759 525
65390 547577 470
505075 875229 525
237756 114492 443
775246 545988 509
412521 445566 418
960446 77348 525
830964 375803 509
113762 46266 354
309461 861684 525
879032 64694 525
315170 480329 449
16118 875525 525
660611 959743 525
829948 213799 509
527965 284617 470
987407 134150 525
50119 666614 509
194726 482065 449
232542 844584 525
975818 326867 525
386447 562504 470
664595 812814 504
225216 175390 386
711789 1375 509
995827 703993 525
460396 214582 449
599796 274644 470
280840 941677 525
242146 794105 509
552135 805412 509
635346 774102 504
39793 779134 509
269288 137762 443
553104 280446 470
979214 743816 525
843836 35677 525
950984 56489 525
550200 238277 470
501713 239520 449
60822 61252 335
944405 370697 525
554983 741886 509
349551 701995 509
361178 14445 443
877333 178575 525
325605 903768 525
712972 122270 509
90228 742777 509
96655 915584 525
524301 425145 470
919 973274 525
888960 750010 525
644013 405938 509
608288 563060 434
473119 839006 525
446539 168460 449
775885 716848 468
670793 68244 509
637940 929524 525
128792 777672 509
269770 284921 407
533739 960029 525
817700 478392 509
969598 258367 525
926196 649584 525
386405 414208 449
659754 334958 509
59060 99560 351
805625 300378 509
986774 546081 525
16892 414363 449
241398 508723 449
883743 167575 525
874276 865070 432
481849 917348 525
880725 667758 525
468061 469370 382
501596 787217 509
90808 559210 470
608676 429314 470
912175 993271 507
