824021 673235 504
665471 714215 504
491258 706904 509
397347 818740 509
326357 394974 441
895966 976913 507
841306 946492 507
43085 533337 470
37209 153185 375
346860 375396 410
662053 693477 442
690487 960172 525
569120 114759 470
730098 663597 504
606799 372025 470
723536 890526 525
30640 875663 525
86689 402953 443
847948 320811 525
674270 39162 509
335025 89811 443
906266 261981 525
914261 865190 476
204450 925902 525
26236 538946 470
889976 603262 525
342454 325135 366
494192 198882 449
284359 422021 449
929655 91741 525
982217 68311 525
451946 501365 444
176902 232905 443
458593 143239 449
784001 7286 509
735333 720878 411
121949 536142 470
266195 155470 443
61563 979302 525
460952 716428 509
447694 949389 525
503000 519940 470
698544 633720 442
725544 310280 509
250633 475204 449
500965 471994 426
108243 113331 323
461058 279563 449
275596 332035 389
416134 401076 449
480630 323710 449
893530 285316 525
640775 113612 509
485913 261599 449
373503 957671 525
998303 70816 525
941821 237780 525
901048 420610 525
585668 337522 470
705226 620612 509
281542 25591 443
863421 475095 525
564459 775078 509
593546 304260 470
653458 30789 509
314249 394834 441
529669 600758 452
369236 190223 443
415263 950970 525
763720 757092 380
277420 393529 441
813440 267365 509
523030 190349 470
959527 569635 525
198237 492334 449
244214 595029 470
429469 871109 525
690387 430487 509
235937 741292 509
977668 285789 525
318127 301785 384
442391 757716 509
66547 506051 449
575606 723249 509
269252 103164 443
171310 72747 383
959268 661023 525
511067 848764 525
842977 118610 525
278537 179980 443
206410 434833 449
322137 107510 443
64582 164327 383
199644 744851 509
120129 516861 470
164298 191154 365
663111 979991 525
474917 268270 449
40061 221619 386
683614 651558 442
645013 716270 504
688923 544691 509
611323 627125 509
511480 360088 449
646084 673676 442
76964 979859 525
966252 468925 525
4272 965997 525
997465 551150 525
930094 738272 525
124873 53456 354
334586 495085 449
301935 25044 443
395967 505682 449
127049 215840 383
127250 488735 449
440657 819557 509
657774 151870 509
455384 571050 470
366633 403474 436
905704 769359 525
95812 652022 509
162996 126740 383
698852 242508 509
322831 444241 449
338936 872335 525
758557 214811 509
97244 122205 354
563660 240036 470
285247 409914 441
901470 684111 525
580761 341620 470
864208 985155 507
489062 800882 509
72156 586646 470
15077 542860 470
150379 119534 375
522879 772375 509
43816 250658 443
789523 767883 468
665889 315241 509
928759 527507 525
687082 184089 509
3728 337004 443
229482 79209 386
377922 295102 441
801269 740180 468
734806 663460 504
76447 771359 509
124995 566231 470
761554 792231 468
561858 506929 470
630700 265615 509
220639 595422 470
758506 435332 509
383829 479443 449
719372 509444 509
67995 173377 383
130719 172524 383
587098 909502 525
34797 735715 509
487873 679639 509
86387 395750 443
877418 598495 525
281436 972198 525
327490 472289 449
6301 651465 509
331239 260871 407
245515 913635 525
134014 807004 509
12113 977374 525
857593 262484 525
667328 225819 509
453175 106314 449
941481 257638 525
352375 876416 525
792833 103210 509
936322 35951 525
952469 787609 525
353138 833494 509
663487 6647 509
961057 619359 525
572985 127175 470
781134 284809 509
361053 981795 525
153904 314227 443
201982 693129 509
285582 105887 443
122068 66158 354
626192 929215 525
712857 126381 509
653467 185215 509
334502 418643 449
106956 912669 525
602981 377140 470
122206 587528 470
523182 941843 525
318202 382418 441
702156 50276 509
843014 786748 525
489381 98406 449
907421 383759 525
325603 441540 449
482525 708311 509
320727 350606 441
803309 91177 509
150600 130838 375
817009 600806 509
65909 689617 509
822558 946236 525
616083 320014 470
867300 284962 525
881107 860229 432
131 495639 449
848394 811567 525
697381 593023 509
579983 554111 421
738536 636734 504
126047 481849 449
714332 497973 509
229843 50264 386
843594 446200 525
199139 764406 509
47518 492005 449
535955 982464 525
460863 397764 449
421021 63808 449
436190 335138 449
426108 709371 509
650325 51201 509
987897 592597 525
976584 169995 525
201661 998374 525
274664 955183 525
405516 907790 525
944435 655190 525
985128 878470 507
884287 953318 507
648251 407146 509
397004 896031 525
971677 312973 525
